{
  "digital_inputs": [
    {"pin": 2, "plc":"%IX0.0"},
    {"pin": 3, "plc":"%IX0.1"},
    {"pin": 4, "plc":"%IX0.2"},
    {"pin": 5, "plc":"%IX0.3"},
    {"pin": 6, "plc":"%IX0.4"}
  ],
  "digital_outputs": [
    {"pin": 7,  "plc":"%QX0.0"},
    {"pin": 8,  "plc":"%QX0.1"},
    {"pin": 12, "plc":"%QX0.2"},
    {"pin": 13, "plc":"%QX0.3"}
  ],
  "analog_inputs": [
    {"pin": "A0", "plc":"%IW0.0"},
    {"pin": "A1", "plc":"%IW0.1"},
    {"pin": "A2", "plc":"%IW0.2"},
    {"pin": "A3", "plc":"%IW0.3"},
    {"pin": "A4", "plc":"%IW0.4"},
    {"pin": "A5", "plc":"%IW0.5"}
  ],
  "analog_outputs": [
    {"pin": 9,  "plc":"%QW0.0"},
    {"pin": 10, "plc":"%QW0.1"},
    {"pin": 11, "plc":"%QW0.2"}
  ]
}